[
    {
        "title": "Подгузники COMFORT",
        "brand": "AlmoNature",
        "category": "Подгузники",
        "rating": "1",
        "ratingCount": "10",
        "price": "1500"
    },
    {
        "title": "Подгузники PREMIUM",
        "brand": "SuperLite",
        "category": "Подгузники",
        "rating": "1",
        "ratingCount": "20",
        "price": "1000"
    },
    {
        "title": "Подгузники SIMPLE",
        "brand": "SuperLite",
        "category": "Подгузники",
        "rating": "3",
        "ratingCount": "32",
        "price": "2000"
    },
    {
        "title": "Подгузники COMFORT Обычный",
        "brand": "GeoMen",
        "category": "Подгузники",
        "rating": "4",
        "ratingCount": "50",
        "price": "400"
    },
    {
        "title": "Подгузники Супер",
        "brand": "Baby",
        "category": "Подгузники",
        "rating": "2",
        "ratingCount": "70",
        "price": "3500"
    },
    {
        "title": "Подгузники COMFORT ECO",
        "brand": "Baby",
        "category": "Подгузники",
        "rating": "4",
        "ratingCount": "170",
        "price": "2200"
    },
    {
        "title": "Подгузники PREMIUM LIGHT",
        "brand": "Moony",
        "category": "Подгузники",
        "rating": "1",
        "ratingCount": "120",
        "price": "1700"
    },
    {
        "title": "Подгузники SIMPLE X",
        "brand": "Ham",
        "category": "Подгузники",
        "rating": "2",
        "ratingCount": "21",
        "price": "850"
    },
    {
        "title": "Подгузники Dry",
        "brand": "Baby",
        "category": "Подгузники",
        "rating": "1",
        "ratingCount": "50",
        "price": "4000"
    },
    {
        "title": "Подгузники UP N GO",
        "brand": "Ham",
        "category": "Подгузники",
        "rating": "5",
        "ratingCount": "80",
        "price": "5500"
    },
    {
        "title": "Молочная смесь",
        "brand": "Сладкоежка",
        "category": "Питание",
        "rating": "3",
        "ratingCount": "11",
        "price": "500"
    },
    {
        "title": "Каша 7 злаков",
        "brand": "Мамина каша",
        "category": "Питание",
        "rating": "5",
        "ratingCount": "112",
        "price": "1030"
    },
    {
        "title": "Жидкость для мытья",
        "brand": "Мандарин",
        "category": "Стирка",
        "rating": "4",
        "ratingCount": "55",
        "price": "700"
    },
    {
        "title": "Стиральный порошок BIO",
        "brand": "Sodasan",
        "category": "Стирка",
        "rating": "2",
        "ratingCount": "84",
        "price": "125"
    },
    {
        "title": "Чистящее средство BIO",
        "brand": "Вестфика",
        "category": "Стирка",
        "rating": "1",
        "ratingCount": "50",
        "price": "400"
    },
    {
        "title": "Кондиционер для белья",
        "brand": "Жирок",
        "category": "Стирка",
        "rating": "5",
        "ratingCount": "70",
        "price": "500"
    },
    {
        "title": "Гель для стирки BIO MIO",
        "brand": "MIO",
        "category": "Стирка",
        "rating": "3",
        "ratingCount": "45",
        "price": "600"
    },
    {
        "title": "пятновыводитель ",
        "brand": "Sodasan",
        "category": "Стирка",
        "rating": "3",
        "ratingCount": "50",
        "price": "250"
    },
    {
        "title": "Таблетки для ПММ BIO",
        "brand": "BIO",
        "category": "Стирка",
        "rating": "1",
        "ratingCount": "50",
        "price": "40"
    }
]
